\boolfalse {citerequest}\boolfalse {citetracker}\boolfalse {pagetracker}\boolfalse {backtracker}\relax 
\defcounter {refsection}{0}\relax 
\select@language {english}
\defcounter {refsection}{0}\relax 
\addvspace {10\p@ }
\defcounter {refsection}{0}\relax 
\contentsline {figure}{\numberline {1.1}{\ignorespaces Stereophonic Configuration\relax }}{4}{figure.caption.5}
\defcounter {refsection}{0}\relax 
\contentsline {figure}{\numberline {1.2}{\ignorespaces Stereophonic configuration with vector formulation\relax }}{6}{figure.caption.7}
\defcounter {refsection}{0}\relax 
\contentsline {figure}{\numberline {1.3}{\ignorespaces Panogram of a multi-pitch mixture of two instruments, trumpet and horn.\relax }}{9}{figure.caption.8}
\defcounter {refsection}{0}\relax 
\addvspace {10\p@ }
\defcounter {refsection}{0}\relax 
\contentsline {figure}{\numberline {2.1}{\ignorespaces Model selection using the Calinski Harabasz criterion on mixture of seven sources.\relax }}{19}{figure.caption.11}
\defcounter {refsection}{0}\relax 
\contentsline {figure}{\numberline {2.2}{\ignorespaces Model selection using the Calinski Harabasz criterion on a mixture of seven sources. In this specific evaluation the $K$-means is overfitting to the measurements compared to Figure \ref {fig:calinski}.\relax }}{21}{figure.caption.13}
\defcounter {refsection}{0}\relax 
\contentsline {figure}{\numberline {2.3}{\ignorespaces The normalized Calinski Harabasz objective functions of Figure \ref {fig:calinski} and \ref {fig:calinski_overfitting}.\relax }}{22}{figure.caption.14}
\defcounter {refsection}{0}\relax 
\addvspace {10\p@ }
\defcounter {refsection}{0}\relax 
\contentsline {figure}{\numberline {3.1}{\ignorespaces AIC, as a function of model order for fitting a mixture of seven sources with the Gaussian mixture model.\relax }}{25}{figure.caption.15}
\defcounter {refsection}{0}\relax 
\contentsline {figure}{\numberline {3.2}{\ignorespaces BIC, as a function of model order, for fitting a mixture of seven sources with the Gaussian mixture model.\relax }}{26}{figure.caption.16}
\defcounter {refsection}{0}\relax 
\contentsline {figure}{\numberline {3.3}{\ignorespaces Component annihilation step 1 has been applied to the parameter estimates of a mixture of 4 sources. All ellipsoids represent a cluster. The ellipsoids containing orange dots are not sticky and are kept. All blue clusters will be ignored following step 1.\relax }}{30}{figure.caption.17}
\defcounter {refsection}{0}\relax 
\contentsline {figure}{\numberline {3.4}{\ignorespaces The ratio as a function of number of estimated clusters (\ref {eq:ratio}). It has been applied to the mixture of 4 sources.\relax }}{31}{figure.caption.18}
\defcounter {refsection}{0}\relax 
\contentsline {figure}{\numberline {3.5}{\ignorespaces Component annihilation step 1 and step 2 has been applied to the parameter estimates of a mixture of 4 sources. All ellipsoids represent a cluster. The ellipsoids containing orange dots are kept after model pruning.\relax }}{31}{figure.caption.19}
\defcounter {refsection}{0}\relax 
\contentsline {figure}{\numberline {3.6}{\ignorespaces The estimated Gaussian mixture. This mixture contains measurement vectors from 4 sources from the SQAM database.\relax }}{32}{figure.caption.20}
\defcounter {refsection}{0}\relax 
\contentsline {figure}{\numberline {3.7}{\ignorespaces Gaussian mixture of 7 sources\relax }}{34}{figure.caption.21}
\defcounter {refsection}{0}\relax 
\contentsline {figure}{\numberline {3.8}{\ignorespaces Before and after pruning.\relax }}{35}{figure.caption.22}
\defcounter {refsection}{0}\relax 
\contentsline {figure}{\numberline {3.9}{\ignorespaces Ratio function of 7 sources shown in Figure~\ref {fig:gmm_7sources}\relax }}{35}{figure.caption.23}
\defcounter {refsection}{0}\relax 
\addvspace {10\p@ }
\defcounter {refsection}{0}\relax 
\contentsline {figure}{\numberline {4.1}{\ignorespaces Optimal segmentation algorithm, based on the MAP-cost function.\relax }}{38}{figure.caption.24}
\defcounter {refsection}{0}\relax 
\contentsline {figure}{\numberline {4.2}{\ignorespaces Comparison of Gaussian mixtures with uniform and optimal segmentation.\relax }}{39}{figure.caption.25}
\defcounter {refsection}{0}\relax 
\contentsline {subfigure}{\numberline {(a)}{\ignorespaces {Gaussian mixture after uniform segmentation.}}}{39}{subfigure.2.1}
\defcounter {refsection}{0}\relax 
\contentsline {subfigure}{\numberline {(b)}{\ignorespaces {Gaussian mixture after optimal segmentation.}}}{39}{subfigure.2.2}
\defcounter {refsection}{0}\relax 
\contentsline {figure}{\numberline {4.3}{\ignorespaces Comparison of Gaussian mixture with uniform and optimal segmentation.\relax }}{39}{figure.caption.26}
\defcounter {refsection}{0}\relax 
\contentsline {subfigure}{\numberline {(a)}{\ignorespaces {Gaussian mixture after uniform segmentation.}}}{39}{subfigure.3.1}
\defcounter {refsection}{0}\relax 
\contentsline {subfigure}{\numberline {(b)}{\ignorespaces {Gaussian mixture after optimal segmentation.}}}{39}{subfigure.3.2}
\defcounter {refsection}{0}\relax 
\contentsline {figure}{\numberline {4.4}{\ignorespaces Comparison of Gaussian mixture with uniform and optimal segmentation.\relax }}{40}{figure.caption.27}
\defcounter {refsection}{0}\relax 
\contentsline {subfigure}{\numberline {(a)}{\ignorespaces {Gaussian mixture after uniform segmentation.}}}{40}{subfigure.4.1}
\defcounter {refsection}{0}\relax 
\contentsline {subfigure}{\numberline {(b)}{\ignorespaces {Gaussian mixture after optimal segmentation.}}}{40}{subfigure.4.2}
\defcounter {refsection}{0}\relax 
\addvspace {10\p@ }
\defcounter {refsection}{0}\relax 
\contentsline {figure}{\numberline {5.1}{\ignorespaces Optimal segmentation on two sources with varying pitches.\relax }}{43}{figure.caption.28}
\defcounter {refsection}{0}\relax 
\contentsline {figure}{\numberline {5.2}{\ignorespaces Signal segmentation on two sources from the SQAM database.\relax }}{44}{figure.caption.29}
\defcounter {refsection}{0}\relax 
\contentsline {figure}{\numberline {5.3}{\ignorespaces Correct cluster estimates on synthetic guitar signals as a function of signal duration. This is the proposed estimator with model order selection by model pruning and uniform segmentation.\relax }}{44}{figure.caption.31}
\defcounter {refsection}{0}\relax 
\contentsline {figure}{\numberline {5.4}{\ignorespaces Correct cluster estimates on synthetic guitar signals as a function of signal duration. This is the proposed estimator with model order selection by model pruning with the applied optimal segmentation, using two different criterias.\relax }}{45}{figure.caption.32}
\defcounter {refsection}{0}\relax 
\contentsline {figure}{\numberline {5.5}{\ignorespaces RMSE of the amplitude angle estimates on synthetic guitar signals as a function of signal duration. This is the proposed estimator with model order selection by model pruning with the applied optimal segmentation, using two different criterias.\relax }}{45}{figure.caption.33}
\defcounter {refsection}{0}\relax 
\contentsline {figure}{\numberline {5.6}{\ignorespaces RMSE of the delay estimates on synthetic guitar signals as a function of signal duration. This is the proposed estimator with model order selection by model pruning with the applied optimal segmentation, using two different criterias.\relax }}{46}{figure.caption.34}
\defcounter {refsection}{0}\relax 
\contentsline {figure}{\numberline {5.7}{\ignorespaces Model order estimates on synthetic guitar signals as a function of signal duration. This is the proposed estimator with model order selection by model pruning with the applied optimal segmentation, using two different criterias.\relax }}{46}{figure.caption.35}
\defcounter {refsection}{0}\relax 
\contentsline {figure}{\numberline {5.8}{\ignorespaces Model order estimates on synthetic guitar signals for all 50 iterations. More of these examples can be found in Appendix~\ref {app:more_examples_order_estimates}\relax }}{47}{figure.caption.36}
\defcounter {refsection}{0}\relax 
\addvspace {10\p@ }
\defcounter {refsection}{0}\relax 
\addvspace {10\p@ }
\defcounter {refsection}{0}\relax 
\contentsline {figure}{\numberline {A.1}{\ignorespaces Model order estimates on synthetic guitar signals for all 50 iterations. More of these examples can be found in Appendix~\ref {app:more_examples_order_estimates}\relax }}{57}{figure.caption.39}
\defcounter {refsection}{0}\relax 
\contentsline {figure}{\numberline {A.2}{\ignorespaces Model order estimates on synthetic guitar signals for all 50 iterations. More of these examples can be found in Appendix~\ref {app:more_examples_order_estimates}\relax }}{58}{figure.caption.40}
\defcounter {refsection}{0}\relax 
\contentsline {figure}{\numberline {A.3}{\ignorespaces Model order estimates on synthetic guitar signals for all 50 iterations. More of these examples can be found in Appendix~\ref {app:more_examples_order_estimates}\relax }}{58}{figure.caption.41}
\defcounter {refsection}{0}\relax 
\contentsline {figure}{\numberline {A.4}{\ignorespaces Model order estimates on synthetic guitar signals for all 50 iterations. More of these examples can be found in Appendix~\ref {app:more_examples_order_estimates}\relax }}{59}{figure.caption.42}
\defcounter {refsection}{0}\relax 
\contentsline {figure}{\numberline {A.5}{\ignorespaces Model order estimates on synthetic guitar signals for all 50 iterations. More of these examples can be found in Appendix~\ref {app:more_examples_order_estimates}\relax }}{59}{figure.caption.43}
\defcounter {refsection}{0}\relax 
\contentsline {figure}{\numberline {A.6}{\ignorespaces Model order estimates on synthetic guitar signals for all 50 iterations. More of these examples can be found in Appendix~\ref {app:more_examples_order_estimates}\relax }}{60}{figure.caption.44}
\defcounter {refsection}{0}\relax 
\contentsline {figure}{\numberline {A.7}{\ignorespaces Model order estimates on synthetic guitar signals for all 50 iterations. More of these examples can be found in Appendix~\ref {app:more_examples_order_estimates}\relax }}{60}{figure.caption.45}
\defcounter {refsection}{0}\relax 
\contentsline {figure}{\numberline {A.8}{\ignorespaces Model order estimates on synthetic guitar signals for all 50 iterations. More of these examples can be found in Appendix~\ref {app:more_examples_order_estimates}\relax }}{61}{figure.caption.46}
\defcounter {refsection}{0}\relax 
\contentsline {figure}{\numberline {A.9}{\ignorespaces Model order estimates on synthetic guitar signals for all 50 iterations. More of these examples can be found in Appendix~\ref {app:more_examples_order_estimates}\relax }}{61}{figure.caption.47}
\defcounter {refsection}{0}\relax 
\contentsline {figure}{\numberline {A.10}{\ignorespaces Model order estimates on synthetic guitar signals for all 50 iterations. More of these examples can be found in Appendix~\ref {app:more_examples_order_estimates}\relax }}{62}{figure.caption.48}
\defcounter {refsection}{0}\relax 
\contentsline {figure}{\numberline {A.11}{\ignorespaces Model order estimates on synthetic guitar signals for all 50 iterations. More of these examples can be found in Appendix~\ref {app:more_examples_order_estimates}\relax }}{62}{figure.caption.49}
\defcounter {refsection}{0}\relax 
\addvspace {10\p@ }
\defcounter {refsection}{0}\relax 
\contentsline {figure}{\numberline {B.1}{\ignorespaces Panogram of the trumpet mixture refered to in the experiments in~\cite {weiss1}.\relax }}{64}{figure.caption.50}
\defcounter {refsection}{0}\relax 
\contentsline {figure}{\numberline {B.2}{\ignorespaces Panogram of a mix of celloes. In Logic Pro these are panned on the given knob to 28. This fits with a ratio of 60/90 because the estimate is based on a loudspeaker aperture of $90^\circ $.\relax }}{64}{figure.caption.51}
\defcounter {refsection}{0}\relax 
\contentsline {figure}{\numberline {B.3}{\ignorespaces Panogram of a mix of guitar plucks. In Logic Pro these are panned on the given knob to 43. This fits with a ratio of 60/90 because the estimate is based on a loudspeaker aperture of $90^\circ $.\relax }}{65}{figure.caption.52}
\defcounter {refsection}{0}\relax 
\contentsline {figure}{\numberline {B.4}{\ignorespaces Panogram of the mix of same guitar plucks from Figure~\ref {fig:panogram3} only now they are changing position over time.\relax }}{65}{figure.caption.53}
\defcounter {refsection}{0}\relax 
\contentsline {figure}{\numberline {B.5}{\ignorespaces Distribution of amplitude and delay ratios, based on the STFT, given a threshhold for each time slot.\relax }}{66}{figure.caption.54}
\defcounter {refsection}{0}\relax 
\contentsline {figure}{\numberline {B.6}{\ignorespaces Data clustered by fitting to a Gaussian Mixture Model, by using a $k$-means initialization.\relax }}{66}{figure.caption.55}
\defcounter {refsection}{0}\relax 
\contentsline {figure}{\numberline {B.7}{\ignorespaces Bayesian information criteria as a function of number of clusters applied to the GMM. These are shown for four different assumptions.\relax }}{67}{figure.caption.56}
\defcounter {refsection}{0}\relax 
\contentsline {figure}{\numberline {B.8}{\ignorespaces Subceeding the BIC criteria for optimal segmentation. Data is clustered by fitting to a Gaussian Mixture Model, by using a $k$-means initialization and new DFTs for each optimal segment.\relax }}{67}{figure.caption.57}
