PWD /home/jacob/panning_project/diary/buildFiles
INPUT /etc/texmf/web2c/texmf.cnf
INPUT /usr/share/texmf/web2c/texmf.cnf
INPUT /usr/share/texlive/texmf-dist/web2c/texmf.cnf
INPUT /var/lib/texmf/web2c/pdftex/pdflatex.fmt
INPUT /home/jacob/panning_project/diary/buildFiles/taskList.tex
OUTPUT /home/jacob/panning_project/diary/buildFiles/taskList.log
INPUT /usr/share/texlive/texmf-dist/fonts/map/fontname/texfonts.map
INPUT /usr/share/texlive/texmf-dist/fonts/tfm/public/cm/cmti10.tfm
