% This file was created by matlab2tikz v0.4.7 running on MATLAB 9.1.
% Copyright (c) 2008--2014, Nico Schlömer <nico.schloemer@gmail.com>
% All rights reserved.
% Minimal pgfplots version: 1.3
% 
% The latest updates can be retrieved from
%   http://www.mathworks.com/matlabcentral/fileexchange/22022-matlab2tikz
% where you can also make suggestions and rate matlab2tikz.
% 
\begin{tikzpicture}

\begin{axis}[%
axis on top,
separate axis lines,
every outer x axis line/.append style={white!15!black},
every x tick label/.append style={font=\color{white!15!black}},
xmin=0,
xmax=1.999875,
xlabel={Time [sec]},
every outer y axis line/.append style={white!15!black},
every y tick label/.append style={font=\color{white!15!black}},
ymin=0,
ymax=4000,
ylabel={Frequency [Hz]},
title={Spectrogram of track 1}
]
\addplot [forget plot] graphics [xmin=0.018,xmax=2.022,ymin=-0.244140625,ymax=4000.244140625] {/home/jacob/panning_project/diary/img/tikz/Graph_Plot-1.png};
\end{axis}
\end{tikzpicture}%
