% This file was created by matlab2tikz v0.4.7 running on MATLAB 9.1.
% Copyright (c) 2008--2014, Nico Schlömer <nico.schloemer@gmail.com>
% All rights reserved.
% Minimal pgfplots version: 1.3
% 
% The latest updates can be retrieved from
%   http://www.mathworks.com/matlabcentral/fileexchange/22022-matlab2tikz
% where you can also make suggestions and rate matlab2tikz.
% 
\begin{tikzpicture}

\begin{axis}[%
width=16cm,
height=7cm,
clip=false,
scale only axis,
every outer x axis line/.append style={white!15!black},
every x tick label/.append style={font=\color{white!15!black}},
xmin=-1.1,
xmax=1.8,
every outer y axis line/.append style={white!15!black},
every y tick label/.append style={font=\color{white!15!black}},
ymin=-0.1,
ymax=1.1,
hide axis,
axis x line*=bottom,
axis y line*=left
]
\addplot [color=black,dashed,forget plot]
  table[row sep=crcr]{%
0.707106781186548	0.707106781186547\\
0.695798845393528	0.718236706628834\\
0.684315745962138	0.729185819821177\\
0.672660373701253	0.739951364382884\\
0.660835662788507	0.750530630145682\\
0.648844590031639	0.760920953835991\\
0.636690174119088	0.771119719745388\\
0.624375474860063	0.781124360389093\\
0.611903592414247	0.790932357152329\\
0.599277666511347	0.80054124092436\\
0.58650087566069	0.809948592720083\\
0.573576436351046	0.819152044288992\\
0.560507602240894	0.828149278711371\\
0.547297663339332	0.83693803098157\\
0.533949945177836	0.845516088578204\\
0.520467807973072	0.853881292021148\\
0.506854645780983	0.862031535415169\\
0.49311388564235	0.869964766980079\\
0.479248986720057	0.877678989567256\\
0.465263439428261	0.885172261162417\\
0.451160764553701	0.89244269537451\\
0.436944512369359	0.899488461910603\\
0.422618261740699	0.90630778703665\\
0.408185619224703	0.912898954024018\\
0.393650218161941	0.919260303581666\\
0.3790157177619	0.925390234273861\\
0.364285802181794	0.931287202923334\\
0.349464179599098	0.936949724999762\\
0.334554581278036	0.942376374993494\\
0.31956076063025	0.947565786774415\\
0.304486492269907	0.95251665393586\\
0.289335571063453	0.957227730123499\\
0.274111811174278	0.961697829349093\\
0.258819045102521	0.965925826289068\\
0.243461122720259	0.969910656567805\\
0.228041910302322	0.973651317025591\\
0.212565289552977	0.97714686597116\\
0.197035156628733	0.980396423418757\\
0.181455421157503	0.983399171309674\\
0.165830005254374	0.986154353718187\\
0.150162842534241	0.988661277041858\\
0.134457877121532	0.990919310176147\\
0.118719062657305	0.992927884673288\\
0.102950361303935	0.994686494885393\\
0.0871557427476584	0.996194698091746\\
0.0713391831992324	0.997452114610254\\
0.0555046643929403	0.998458427893033\\
0.0396561725842124	0.999213384606097\\
0.0237976975461077	0.999716794693129\\
0.00793323156490993	0.999968531423333\\
-0.00793323156490981	0.999968531423333\\
-0.0237976975461076	0.999716794693129\\
-0.0396561725842123	0.999213384606097\\
-0.0555046643929402	0.998458427893033\\
-0.0713391831992322	0.997452114610254\\
-0.087155742747658	0.996194698091746\\
-0.102950361303934	0.994686494885393\\
-0.118719062657305	0.992927884673288\\
-0.134457877121532	0.990919310176147\\
-0.15016284253424	0.988661277041858\\
-0.165830005254374	0.986154353718187\\
-0.181455421157503	0.983399171309674\\
-0.197035156628733	0.980396423418757\\
-0.212565289552977	0.97714686597116\\
-0.228041910302322	0.973651317025591\\
-0.243461122720259	0.969910656567805\\
-0.258819045102521	0.965925826289068\\
-0.274111811174278	0.961697829349093\\
-0.289335571063453	0.957227730123499\\
-0.304486492269907	0.95251665393586\\
-0.31956076063025	0.947565786774415\\
-0.334554581278035	0.942376374993494\\
-0.349464179599098	0.936949724999762\\
-0.364285802181794	0.931287202923334\\
-0.3790157177619	0.925390234273861\\
-0.393650218161941	0.919260303581666\\
-0.408185619224703	0.912898954024018\\
-0.422618261740699	0.90630778703665\\
-0.436944512369359	0.899488461910603\\
-0.451160764553701	0.89244269537451\\
-0.46526343942826	0.885172261162417\\
-0.479248986720057	0.877678989567256\\
-0.49311388564235	0.869964766980079\\
-0.506854645780983	0.862031535415169\\
-0.520467807973072	0.853881292021148\\
-0.533949945177836	0.845516088578204\\
-0.547297663339332	0.83693803098157\\
-0.560507602240894	0.828149278711371\\
-0.573576436351046	0.819152044288992\\
-0.58650087566069	0.809948592720083\\
-0.599277666511347	0.80054124092436\\
-0.611903592414247	0.790932357152329\\
-0.624375474860063	0.781124360389093\\
-0.636690174119088	0.771119719745388\\
-0.648844590031638	0.760920953835992\\
-0.660835662788507	0.750530630145682\\
-0.672660373701252	0.739951364382884\\
-0.684315745962138	0.729185819821177\\
-0.695798845393527	0.718236706628834\\
-0.707106781186547	0.707106781186548\\
};
\addplot [color=black,solid,forget plot]
  table[row sep=crcr]{%
0	0\\
0.628617928474841	0.628617928474841\\
};

\addplot[area legend,solid,fill=black,draw=black,forget plot]
table[row sep=crcr] {%
x	y\\
0.628617928474841	0.628617928474841\\
0.616045569905344	0.603473211335847\\
0.603473211335847	0.616045569905344\\
};

\node[right, inner sep=0mm, text=black]
at (axis cs:0.6,0.55,0) {$g_2\textbf{l}_2$};
\addplot [color=black,solid,forget plot]
  table[row sep=crcr]{%
0	0\\
0.707106781186548	0.707106781186547\\
};

\addplot[area legend,solid,fill=black,draw=black,forget plot]
table[row sep=crcr] {%
x	y\\
0.707106781186548	0.707106781186547\\
0.692964645562817	0.678822509939086\\
0.678822509939086	0.692964645562817\\
};

\node[right, inner sep=0mm, text=black]
at (axis cs:0.7,0.65,0) {$\textbf{l}_2$};
\addplot [color=black,solid,forget plot]
  table[row sep=crcr]{%
0	0\\
-0.323789283330996	0.323789283330996\\
};

\addplot[area legend,solid,fill=black,draw=black,forget plot]
table[row sep=crcr] {%
x	y\\
-0.323789283330996	0.323789283330996\\
-0.301124033497826	0.314075604831066\\
-0.314075604831066	0.301124033497826\\
};

\node[right, inner sep=0mm, text=black]
at (axis cs:-0.45,0.3,0) {$g_1\textbf{l}_1$};
\addplot [color=black,solid,forget plot]
  table[row sep=crcr]{%
0	0\\
-0.707106781186547	0.707106781186548\\
};

\addplot[area legend,solid,fill=black,draw=black,forget plot]
table[row sep=crcr] {%
x	y\\
-0.707106781186547	0.707106781186548\\
-0.678822509939086	0.692964645562817\\
-0.692964645562817	0.678822509939086\\
};

\node[right, inner sep=0mm, text=black]
at (axis cs:-0.72,0.65,0) {$\textbf{l}_1$};
\addplot [color=black,solid,forget plot]
  table[row sep=crcr]{%
-0.323789283330996	0.323789283330996\\
0.304828645143845	0.952407211805837\\
};

\addplot[area legend,solid,fill=black,draw=black,forget plot]
table[row sep=crcr] {%
x	y\\
0.304828645143845	0.952407211805837\\
0.292256286574348	0.927262494666843\\
0.279683928004851	0.93983485323634\\
};

\addplot [color=black,solid,forget plot]
  table[row sep=crcr]{%
0.628617928474841	0.628617928474841\\
0.304828645143845	0.952407211805837\\
};

\addplot[area legend,solid,fill=black,draw=black,forget plot]
table[row sep=crcr] {%
x	y\\
0.304828645143845	0.952407211805837\\
0.317780216477085	0.945931426139217\\
0.311304430810465	0.939455640472597\\
};

\addplot [color=black,solid,forget plot]
  table[row sep=crcr]{%
0	0\\
0.309016994374947	0.951056516295154\\
};

\addplot[area legend,solid,fill=black,draw=black,forget plot]
table[row sep=crcr] {%
x	y\\
0.309016994374947	0.951056516295154\\
0.309257049706651	0.919434650862549\\
0.290235919380747	0.925614990750048\\
};

\node[right, inner sep=0mm, text=black]
at (axis cs:0.3,0.85,0) {$\textbf{p}$};
\addplot [color=black,solid,forget plot]
  table[row sep=crcr]{%
0.760139789775539	0.654073772597556\\
0.830850467894193	0.724784450716211\\
0.724784450716211	0.830850467894193\\
0.654073772597557	0.760139789775539\\
0.760139789775539	0.654073772597556\\
};
\addplot [color=black,solid,forget plot]
  table[row sep=crcr]{%
-0.654073772597556	0.760139789775539\\
-0.724784450716211	0.830850467894193\\
-0.830850467894193	0.724784450716211\\
-0.760139789775539	0.654073772597557\\
-0.654073772597556	0.760139789775539\\
};
\addplot [color=black,dashed,forget plot]
  table[row sep=crcr]{%
0.380346233097084	0.927880241717032\\
0.411247932534579	1.02298589334655\\
0.268589455090306	1.06933844250279\\
0.237687755652811	0.974232790873275\\
0.380346233097084	0.927880241717032\\
};
\addplot [color=black,solid,forget plot]
  table[row sep=crcr]{%
0	0\\
0	1.25\\
};

\addplot[area legend,solid,fill=black,draw=black,forget plot]
table[row sep=crcr] {%
x	y\\
0	1.25\\
0.0125	1.2125\\
-0.0125	1.2125\\
};

\node[right, inner sep=0mm, text=black]
at (axis cs:-0.65,0.058,0) {$y$};
\addplot [color=black,solid,forget plot]
  table[row sep=crcr]{%
0.3	0\\
-0.707	0\\
};

\addplot[area legend,solid,fill=black,draw=black,forget plot]
table[row sep=crcr] {%
x	y\\
-0.707	0\\
-0.66672	0.015105\\
-0.66672	-0.015105\\
};

\node[right, inner sep=0mm, text=black]
at (axis cs:0.03,1.2,0) {$x$};
\node[right, inner sep=0mm, text=black]
at (axis cs:0.8,0.9,0) {Right};
\node[right, inner sep=0mm, text=black]
at (axis cs:0.8,0.83,0) {Speaker};
\node[right, inner sep=0mm, text=black]
at (axis cs:-0.97,0.94,0) {Left};
\node[right, inner sep=0mm, text=black]
at (axis cs:-0.97,0.87,0) {Speaker};
\node[right, inner sep=0mm, text=black]
at (axis cs:0.259016994374947,1.19105651629515,0) {Virtual};
\node[right, inner sep=0mm, text=black]
at (axis cs:0.259016994374947,1.12105651629515,0) {Source};
\end{axis}
\end{tikzpicture}%