% This file was created by matlab2tikz v0.4.7 running on MATLAB 9.1.
% Copyright (c) 2008--2014, Nico Schlömer <nico.schloemer@gmail.com>
% All rights reserved.
% Minimal pgfplots version: 1.3
% 
% The latest updates can be retrieved from
%   http://www.mathworks.com/matlabcentral/fileexchange/22022-matlab2tikz
% where you can also make suggestions and rate matlab2tikz.
% 
\begin{tikzpicture}

\begin{axis}[%
width=16cm,
height=7cm,
clip=false,
scale only axis,
every outer x axis line/.append style={white!15!black},
every x tick label/.append style={font=\color{white!15!black}},
xmin=-1.1,
xmax=1.8,
every outer y axis line/.append style={white!15!black},
every y tick label/.append style={font=\color{white!15!black}},
ymin=-0.1,
ymax=1.1,
hide axis,
axis x line*=bottom,
axis y line*=left
]
\addplot [color=black,dashed,forget plot]
  table[row sep=crcr]{%
0.707106781186548	0.707106781186547\\
0.695798845393528	0.718236706628834\\
0.684315745962138	0.729185819821177\\
0.672660373701253	0.739951364382884\\
0.660835662788507	0.750530630145682\\
0.648844590031639	0.760920953835991\\
0.636690174119088	0.771119719745388\\
0.624375474860063	0.781124360389093\\
0.611903592414247	0.790932357152329\\
0.599277666511347	0.80054124092436\\
0.58650087566069	0.809948592720083\\
0.573576436351046	0.819152044288992\\
0.560507602240894	0.828149278711371\\
0.547297663339332	0.83693803098157\\
0.533949945177836	0.845516088578204\\
0.520467807973072	0.853881292021148\\
0.506854645780983	0.862031535415169\\
0.49311388564235	0.869964766980079\\
0.479248986720057	0.877678989567256\\
0.465263439428261	0.885172261162417\\
0.451160764553701	0.89244269537451\\
0.436944512369359	0.899488461910603\\
0.422618261740699	0.90630778703665\\
0.408185619224703	0.912898954024018\\
0.393650218161941	0.919260303581666\\
0.3790157177619	0.925390234273861\\
0.364285802181794	0.931287202923334\\
0.349464179599098	0.936949724999762\\
0.334554581278036	0.942376374993494\\
0.31956076063025	0.947565786774415\\
0.304486492269907	0.95251665393586\\
0.289335571063453	0.957227730123499\\
0.274111811174278	0.961697829349093\\
0.258819045102521	0.965925826289068\\
0.243461122720259	0.969910656567805\\
0.228041910302322	0.973651317025591\\
0.212565289552977	0.97714686597116\\
0.197035156628733	0.980396423418757\\
0.181455421157503	0.983399171309674\\
0.165830005254374	0.986154353718187\\
0.150162842534241	0.988661277041858\\
0.134457877121532	0.990919310176147\\
0.118719062657305	0.992927884673288\\
0.102950361303935	0.994686494885393\\
0.0871557427476584	0.996194698091746\\
0.0713391831992324	0.997452114610254\\
0.0555046643929403	0.998458427893033\\
0.0396561725842124	0.999213384606097\\
0.0237976975461077	0.999716794693129\\
0.00793323156490993	0.999968531423333\\
-0.00793323156490981	0.999968531423333\\
-0.0237976975461076	0.999716794693129\\
-0.0396561725842123	0.999213384606097\\
-0.0555046643929402	0.998458427893033\\
-0.0713391831992322	0.997452114610254\\
-0.087155742747658	0.996194698091746\\
-0.102950361303934	0.994686494885393\\
-0.118719062657305	0.992927884673288\\
-0.134457877121532	0.990919310176147\\
-0.15016284253424	0.988661277041858\\
-0.165830005254374	0.986154353718187\\
-0.181455421157503	0.983399171309674\\
-0.197035156628733	0.980396423418757\\
-0.212565289552977	0.97714686597116\\
-0.228041910302322	0.973651317025591\\
-0.243461122720259	0.969910656567805\\
-0.258819045102521	0.965925826289068\\
-0.274111811174278	0.961697829349093\\
-0.289335571063453	0.957227730123499\\
-0.304486492269907	0.95251665393586\\
-0.31956076063025	0.947565786774415\\
-0.334554581278035	0.942376374993494\\
-0.349464179599098	0.936949724999762\\
-0.364285802181794	0.931287202923334\\
-0.3790157177619	0.925390234273861\\
-0.393650218161941	0.919260303581666\\
-0.408185619224703	0.912898954024018\\
-0.422618261740699	0.90630778703665\\
-0.436944512369359	0.899488461910603\\
-0.451160764553701	0.89244269537451\\
-0.46526343942826	0.885172261162417\\
-0.479248986720057	0.877678989567256\\
-0.49311388564235	0.869964766980079\\
-0.506854645780983	0.862031535415169\\
-0.520467807973072	0.853881292021148\\
-0.533949945177836	0.845516088578204\\
-0.547297663339332	0.83693803098157\\
-0.560507602240894	0.828149278711371\\
-0.573576436351046	0.819152044288992\\
-0.58650087566069	0.809948592720083\\
-0.599277666511347	0.80054124092436\\
-0.611903592414247	0.790932357152329\\
-0.624375474860063	0.781124360389093\\
-0.636690174119088	0.771119719745388\\
-0.648844590031638	0.760920953835992\\
-0.660835662788507	0.750530630145682\\
-0.672660373701252	0.739951364382884\\
-0.684315745962138	0.729185819821177\\
-0.695798845393527	0.718236706628834\\
-0.707106781186547	0.707106781186548\\
0	0\\
0.707106781186548	0.707106781186547\\
};
\addplot [color=black,solid,forget plot]
  table[row sep=crcr]{%
-0.120208152801713	0.120208152801713\\
-0.119250730910075	0.121158009134407\\
-0.1182858037169	0.122100240126902\\
-0.117313431951959	0.123034786477862\\
-0.116333676813564	0.1239615893696\\
-0.115346599964712	0.124880590471781\\
-0.114352263529213	0.12579173194509\\
-0.11335073008777	0.126694956444878\\
-0.112342062674046	0.127590207124766\\
-0.111326324770698	0.128477427640224\\
-0.110303580305379	0.129356562152119\\
-0.109273893646712	0.130227555330226\\
-0.108237329600245	0.131090352356716\\
-0.107193953404369	0.131944898929599\\
-0.106143830726211	0.132791141266146\\
-0.105087027657503	0.133629026106274\\
-0.104023610710422	0.134458500715896\\
-0.102953646813403	0.135279512890242\\
-0.101877203306929	0.136092010957141\\
-0.100794347939289	0.13689594378028\\
-0.0997051488623174	0.137691260762414\\
-0.0986096746271037	0.138477911848557\\
-0.0975079941796779	0.139255847529129\\
-0.096400176856671	0.140025018843072\\
-0.095286292380952	0.140785377380933\\
-0.0941664108572387	0.141536875287911\\
-0.0930406027676865	0.142279465266867\\
-0.0919089389674516	0.143013100581301\\
-0.0907714906802321	0.143737735058295\\
-0.0896283294937854	0.144453323091417\\
-0.0884795273554223	0.145159819643595\\
-0.087325156567479	0.145857180249946\\
-0.0861652897827671	0.146545361020579\\
-0.085	0.147224318643355\\
-0.0838293605591995	0.147894010386613\\
-0.0826534451370797	0.148554394101863\\
-0.0814723277424097	0.149205428226433\\
-0.0802860827113561	0.149847071786089\\
-0.0790947847028042	0.150479284397611\\
-0.0778985086936598	0.151102026271337\\
-0.0766973299741291	0.151715258213667\\
-0.0754913241429816	0.152318941629527\\
-0.0742805671027911	0.152913038524803\\
-0.0730651350551592	0.153497511508726\\
-0.0718451044959189	0.154072323796231\\
-0.0706205522103207	0.154637439210268\\
-0.0693915552681995	0.155192822184083\\
-0.0681581910191243	0.155738437763452\\
-0.06692053708753	0.156274251608883\\
-0.0656786713678319	0.156800229997779\\
-0.064432672019523	0.157316339826556\\
-0.0631826174622557	0.157822548612732\\
-0.061928586370905	0.158318824496967\\
-0.0606706576706182	0.158805136245068\\
-0.0594089105318467	0.15928145324996\\
-0.0581434243653637	0.159747745533604\\
-0.056874278817266	0.160203983748894\\
-0.0556015537639617	0.160650139181494\\
-0.0543253293071425	0.161086183751651\\
-0.0530456857687428	0.161512090015961\\
-0.0517627036858842	0.161927831169096\\
-0.0504764638058067	0.162333381045493\\
-0.049187047080787	0.162728714120995\\
-0.047894534663043	0.163113805514465\\
-0.0465990078996272	0.163488630989346\\
-0.0453005483273059	0.16385316695519\\
-0.0439992376674285	0.164207390469142\\
-0.0426951578207835	0.164551279237381\\
-0.041388390862444	0.164884811616527\\
-0.0400790190366026	0.165207966615002\\
-0.0387671247513947	0.16552072389435\\
-0.0374527905737119	0.165823063770519\\
-0.036136099224006	0.166114967215097\\
-0.0348171335710824	0.166396415856512\\
-0.0334959766268846	0.166667391981189\\
-0.0321727115412697	0.16692787853466\\
-0.0308474215967754	0.167177859122645\\
-0.0295201902033782	0.167417318012075\\
-0.0281911008932436	0.167646240132092\\
-0.0268602373154695	0.167864611074987\\
-0.0255276832308209	0.168072417097116\\
-0.0241935225064585	0.168269645119759\\
-0.0228578391106604	0.168456282729945\\
-0.0215207171075374	0.168632318181235\\
-0.0201822406517419	0.168797740394459\\
-0.0188424939831719	0.168952538958413\\
-0.0175015614216689	0.169096704130517\\
-0.0161595273617111	0.169230226837424\\
-0.0148164762671019	0.169353098675597\\
-0.013472492665654	0.16946531191183\\
-0.0121276611438695	0.169566859483743\\
-0.010782066341616	0.16965773500022\\
-0.00943579294679983	0.169737932741816\\
-0.00808892569003619	0.169807447661111\\
-0.00674154933931609	0.169866275383036\\
-0.00539374869467147	0.169914412205142\\
-0.00404560858283829	0.169951855097832\\
-0.00269721385191733	0.169978601704559\\
-0.00134864936603467	0.169994650341967\\
1.04094977927525e-17	0.17\\
0	0\\
-0.120208152801713	0.120208152801713\\
};
\node[right, inner sep=0mm, text=black]
at (axis cs:0.05,0.425,0) {$\phi$};
\addplot [color=black,solid,forget plot]
  table[row sep=crcr]{%
0.14142135623731	0.14142135623731\\
0.140294977541264	0.142538834275773\\
0.139159769078706	0.143647341325767\\
0.138015802296422	0.144746807621014\\
0.136863149192428	0.145837163964235\\
0.135701882311426	0.146918341731507\\
0.134532074740251	0.147990272876577\\
0.133353800103258	0.149052889935151\\
0.132167132557701	0.150106126029136\\
0.130972146789057	0.151149914870852\\
0.129768918006328	0.152184190767198\\
0.128557521937308	0.153208888623796\\
0.127338034823818	0.154223943949078\\
0.126110533416905	0.155229292858351\\
0.124875094972013	0.156224872077819\\
0.123631797244121	0.157210618948558\\
0.122380718482849	0.158186471430466\\
0.121121937427533	0.159152368106166\\
0.119855533302269	0.160108248184872\\
0.118581585810928	0.161054051506212\\
0.117300175132138	0.161989718544017\\
0.11601138191424	0.162915190410067\\
0.114715287270209	0.163830408857798\\
0.113411972772554	0.164735316285967\\
0.112101520448179	0.165629855742274\\
0.110784012773222	0.166513970926954\\
0.109459532667866	0.167387606196314\\
0.10812816349112	0.168250706566236\\
0.106789989035567	0.169103217715641\\
0.1054450935221	0.169945085989903\\
0.104093561594614	0.17077625840423\\
0.102735478314681	0.171596682646995\\
0.101370929156197	0.172406307083034\\
0.1	0.173205080756888\\
0.0986227771284701	0.173992953396016\\
0.0972393472200937	0.174769875413957\\
0.0958497973440114	0.175535797913451\\
0.0944542149545365	0.176290672689516\\
0.0930526878856521	0.177034452232483\\
0.0916453043454821	0.177767089730985\\
0.0902321529107402	0.178488539074902\\
0.0888133225211549	0.179198754858267\\
0.0873889024738719	0.179897692382121\\
0.0859589824178344	0.180585307657324\\
0.0845236523481399	0.18126155740733\\
0.0830830026003773	0.181926399070904\\
0.0816371238449406	0.182579790804804\\
0.0801861070813228	0.183221691486414\\
0.0787300436323883	0.183852060716333\\
0.0772690251386258	0.184470858820916\\
0.0758031435523801	0.185078046854772\\
0.0743324911320655	0.185673586603215\\
0.0728571604363589	0.186257440584667\\
0.0713772443183744	0.186829572053021\\
0.0698928359198197	0.187389944999952\\
0.0684040286651338	0.187938524157182\\
0.0669109162556071	0.188475274998699\\
0.0654135926634844	0.189000163742934\\
0.06391215212605	0.189513157354883\\
0.0624066891396974	0.190014223548189\\
0.0608972984539814	0.190503330787172\\
0.059384075065655	0.190980448288815\\
0.0578671142126906	0.1914455460247\\
0.0563465113682859	0.191898594722899\\
0.0548223622348556	0.192339565869819\\
0.053294762738007	0.192768431711988\\
0.0517638090205042	0.193185165257814\\
0.0502295974362158	0.193589740279271\\
0.0486922245440518	0.193982131313561\\
0.0471517871018855	0.194362313664708\\
0.0456083820604643	0.194730263405118\\
0.0440621065573082	0.195085957377081\\
0.0425130579105953	0.195429373194232\\
0.0409613336130382	0.195760489242956\\
0.0394070313257466	0.196079284683751\\
0.037850248872082	0.196385739452541\\
0.0362910842315005	0.196679834261935\\
0.0347296355333861	0.196961550602442\\
0.0331660010508749	0.197230870743637\\
0.03160027919467	0.197487777735279\\
0.0300325685068481	0.197732255408372\\
0.028462967654657	0.197964288376187\\
0.0268915754243064	0.198183862035229\\
0.0253184907147499	0.198390962566159\\
0.0237438125314611	0.198585576934658\\
0.0221676399802022	0.198767692892251\\
0.0205900722607869	0.198937298977079\\
0.0190112086608366	0.199094384514617\\
0.0174311485495317	0.199238939618349\\
0.0158499913713577	0.199370955190388\\
0.0142678366398465	0.199490422922051\\
0.0126847839313129	0.199597335294377\\
0.0111009328785881	0.199691685578607\\
0.00951638316474848	0.199773467836602\\
0.00793123451684248	0.199842676921219\\
0.00634558669961352	0.199899308476637\\
0.00475953950922154	0.199943358938626\\
0.00317319276696159	0.199974825534775\\
0.00158664631298199	0.199993706284667\\
1.22464679914735e-17	0.2\\
0	0\\
0.14142135623731	0.14142135623731\\
};
\node[right, inner sep=0mm, text=black]
at (axis cs:-0.12,0.19,0) {$\phi_0$};
\addplot [color=black,solid,forget plot]
  table[row sep=crcr]{%
0	0\\
-0.707106781186547	0.707106781186548\\
};
\addplot [color=black,solid,forget plot]
  table[row sep=crcr]{%
0	0\\
0.707106781186548	0.707106781186547\\
};
\addplot [color=black,solid,forget plot]
  table[row sep=crcr]{%
0.123606797749979	0.380422606518061\\
0.122398972501482	0.380812935088321\\
0.121189914696691	0.381199428876551\\
0.119979636510804	0.381582083990765\\
0.11876815013131	0.38196089657763\\
0.117555467757862	0.382335862822506\\
0.11634160160216	0.382706978949489\\
0.11512656388782	0.383074241221442\\
0.113910366850261	0.383437645940039\\
0.112693022736572	0.383797189445799\\
0.111474543805395	0.384152868118122\\
0.1102549423268	0.384504678375328\\
0.109034230582159	0.384852616674691\\
0.107812420864027	0.385196679512477\\
0.106589525476014	0.385536863423977\\
0.105365556732663	0.385873164983542\\
0.104140526959325	0.38620558080462\\
0.102914448492037	0.386534107539787\\
0.101687333677395	0.386858741880783\\
0.100459194872432	0.387179480558543\\
0.0992300444444916	0.387496320343231\\
0.0979998947711055	0.387809258044277\\
0.0967687582398671	0.388118290510399\\
0.0955366472483076	0.388423414629644\\
0.0943035742037709	0.388724627329417\\
0.093069551523289	0.389021925576508\\
0.0918345916334564	0.389315306377127\\
0.0905987069703058	0.389604766776933\\
0.0893619099791817	0.389890303861064\\
0.0881242131146163	0.390171914754163\\
0.0868856288402031	0.390449596620412\\
0.0856461696284722	0.390723346663558\\
0.0844058479607639	0.390993162126941\\
0.0831646763271038	0.391259040293522\\
0.0819226672260763	0.391520978485911\\
0.0806798331646994	0.391778974066394\\
0.0794361866582982	0.392033024436957\\
0.0781917402303793	0.392283127039317\\
0.0769465064125043	0.392529279354942\\
0.0757004977441641	0.392771478905083\\
0.074453726772652	0.393009723250791\\
0.0732062060529379	0.393244009992949\\
0.0719579481475415	0.393474336772293\\
0.0707089656264063	0.393700701269434\\
0.0694592710667722	0.393923101204883\\
0.0682088770530496	0.394141534339077\\
0.0669577961766922	0.394355998472396\\
0.0657060410360708	0.394566491445189\\
0.0644536242363457	0.394773011137793\\
0.06320055838934	0.394975555470558\\
0.061946856113413	0.395174122403864\\
0.0606925300333327	0.395368709938145\\
0.0594375927801488	0.395559316113906\\
0.0581820569910654	0.395745939011746\\
0.0569259353093141	0.395928576752373\\
0.0556692403840262	0.396107227496628\\
0.0544119848701057	0.3962818894455\\
0.0531541814281016	0.396452560840145\\
0.0518958427240807	0.396619239961903\\
0.0506369814294997	0.396781925132318\\
0.0493776102210779	0.396940614713152\\
0.0481177417806694	0.397095307106403\\
0.0468573887951353	0.39724600075432\\
0.0455965639562163	0.39739269413942\\
0.0443352799604044	0.397535385784502\\
0.0430735495088155	0.397674074252662\\
0.0418113853070614	0.397808758147309\\
0.0405488000651214	0.397939436112179\\
0.0392858064972149	0.398066106831345\\
0.0380224173216731	0.398188769029234\\
0.036758645260811	0.39830742147064\\
0.0354945030407992	0.398422062960734\\
0.0342300033915359	0.398532692345077\\
0.0329651590465184	0.398639308509632\\
0.0316999827427154	0.398741910380777\\
0.0304344872204381	0.398840496925311\\
0.0291686852232123	0.398935067150469\\
0.0279025894976502	0.39902562010393\\
0.0266362127933215	0.399112154873826\\
0.0253695678626258	0.399194670588754\\
0.0241026674606634	0.399273166417781\\
0.0228355243451072	0.399347641570454\\
0.0215681512760744	0.399418095296811\\
0.0203005610159977	0.399484526887382\\
0.019032766329497	0.399546935673203\\
0.0177647799832506	0.399605321025818\\
0.0164966147458669	0.399659682357286\\
0.015228283387756	0.399710019120189\\
0.0139597986810004	0.399756330807638\\
0.012691173399227	0.399798616953274\\
0.0114224203174785	0.399836877131276\\
0.0101535522120842	0.399871110956364\\
0.00888458186053181	0.399901318083804\\
0.00761552204133874	0.39992749820941\\
0.00634638553392317	0.39994965106955\\
0.00507718511847583	0.399967776441144\\
0.0038079335758307	0.399981874141669\\
0.00253864368733666	0.399991944029163\\
0.00126932823472896	0.39999798600222\\
2.44929359829471e-17	0.4\\
0	0\\
0.123606797749979	0.380422606518061\\
};
\node[right, inner sep=0mm, text=black]
at (axis cs:0.05,0.2,0) {$-\phi_0$};
\addplot [color=black,solid,forget plot]
  table[row sep=crcr]{%
0	0\\
0.309016994374947	0.951056516295154\\
};
\addplot [color=black,solid,forget plot]
  table[row sep=crcr]{%
0.760139789775539	0.654073772597556\\
0.830850467894193	0.724784450716211\\
0.724784450716211	0.830850467894193\\
0.654073772597557	0.760139789775539\\
0.760139789775539	0.654073772597556\\
};
\addplot [color=black,solid,forget plot]
  table[row sep=crcr]{%
-0.654073772597556	0.760139789775539\\
-0.724784450716211	0.830850467894193\\
-0.830850467894193	0.724784450716211\\
-0.760139789775539	0.654073772597557\\
-0.654073772597556	0.760139789775539\\
};
\addplot [color=black,dashed,forget plot]
  table[row sep=crcr]{%
0.380346233097084	0.927880241717032\\
0.411247932534579	1.02298589334655\\
0.268589455090306	1.06933844250279\\
0.237687755652811	0.974232790873275\\
0.380346233097084	0.927880241717032\\
};
\addplot [color=black,solid,forget plot]
  table[row sep=crcr]{%
0	-0.1\\
0	1.25\\
};

\addplot[area legend,solid,fill=black,draw=black,forget plot]
table[row sep=crcr] {%
x	y\\
0	1.25\\
0.02025	1.1825\\
-0.02025	1.1825\\
};

\node[right, inner sep=0mm, text=black]
at (axis cs:-0.58,0.06,0) {$y$};
\addplot [color=black,solid,forget plot]
  table[row sep=crcr]{%
0.1	0\\
-0.707	0\\
};

\addplot[area legend,solid,fill=black,draw=black,forget plot]
table[row sep=crcr] {%
x	y\\
-0.707	0\\
-0.65858	0.028245\\
-0.65858	-0.028245\\
};

\node[right, inner sep=0mm, text=black]
at (axis cs:0.054,1,0) {$x$};
\node[right, inner sep=0mm, text=black]
at (axis cs:0.7,0.94,0) {Right};
\node[right, inner sep=0mm, text=black]
at (axis cs:0.7,0.87,0) {Speaker};
\node[right, inner sep=0mm, text=black]
at (axis cs:-0.97,0.94,0) {Left};
\node[right, inner sep=0mm, text=black]
at (axis cs:-0.97,0.87,0) {Speaker};
\node[right, inner sep=0mm, text=black]
at (axis cs:0.259016994374947,1.19105651629515,0) {Virtual};
\node[right, inner sep=0mm, text=black]
at (axis cs:0.259016994374947,1.12105651629515,0) {Source};
\end{axis}
\end{tikzpicture}%